polcon_childes
…
ggsave(here::here("childes/marker_utt_frequency_by_age.png"), width = 12, height = 3)

  utt_polite %>% select(gloss, speaker_role, utterance) %>% filter(gloss == "sorry")

## # A tibble: 881 x 3
##    gloss speaker_role utterance                                           
##    <chr> <chr>        <chr>                                               
##  1 sorry parent       and mommy thinks that I should feel sorry for her w
##  2 sorry parent       sorry                                               
##  3 sorry parent       sorry honey                                         
##  4 sorry parent       I'm sorry                                           
##  5 sorry parent       I'm sorry pal                                       
##  6 sorry parent       oh I'm sorry                                        
##  7 sorry child        it I I'm sorry that I I dropped him and hurt him    
##  8 sorry parent       sorry I took the wrong here                         
##  9 sorry parent       I'm sorry you can't have the pen                    
## 10 sorry parent       oh alright sorry                                    
## # ... with 871 more rows
…
